[
  {
    "entity1": {
      "value1": {
        "zepasKey": "zepaskey1",
        "syriusKey": "syriuskey1",
        "mdmKey": "mdmkey1",
        "description": {
          "de": {
            "shorttxt": "Kurztext1",
            "longtxt": "Langtext1"
          },
          "en": {
            "shorttxt": "Shorttxt1",
            "longtxt": "Longtext1"
          }
        }
      },
    "value2": {
      "zepasKey": "zepaskey2",
      "syriusKey": "syriuskey2",
      "mdmKey": "mdmkey2",
      "description": {
        "de": {
          "shorttxt": "Kurztext2",
          "longtxt": "Langtext2"
        },
        "en": {
          "shorttxt": "Shorttxt2",
          "longtxt": "Longtext2"
        }
      }
    }
  }
]