{
  "action": [
    {
      "refresh": {
        "language": {
          "de": {
            "shorttxt": "Aktualisieren",
            "longtxt": "Aktualisieren"
          },
          "en": {
            "shorttxt": "Refresh",
            "longtxt": "Refresh"
          }
        }
      },
      "deltaLoadInboundStage": {
        "language": {
          "de": {
            "shorttxt": "Starte Reprocessing Inbound Stage",
            "longtxt": "Starte Reprocessing Inbound Stage"
          },
          "en": {
            "shorttxt": "Start Reprocessing Inbound Stage",
            "longtxt": "Start Reprocessing Inbound Stage"
          }
        }
      },
      "deltaLoadMDMDB": {
        "language": {
          "de": {
            "shorttxt": "Starte Reprocessing MDM DB",
            "longtxt": "Starte Reprocessing MDM DB"
          },
          "en": {
            "shorttxt": "Start Reprocessing MDM DB",
            "longtxt": "Start Reprocessing MDM DB"
          }
        }
      },
      "deltaLoadOutboundStage": {
        "language": {
          "de": {
            "shorttxt": "Starte Reprocessing Outbound Stage",
            "longtxt": "Starte Reprocessing Outbound Stage"
          },
          "en": {
            "shorttxt": "Start Reprocessing Outbound Stage",
            "longtxt": "Start Reprocessing Outbound Stage"
          }
        }
      },
      "deltaLoadRepublishPartner": {
        "language": {
          "de": {
            "shorttxt": "Einzelnen Partner republishen",
            "longtxt": "Alle Versionen genau eines Partners verteilen"
          },
          "en": {
            "shorttxt": "Republish single partner",
            "longtxt": "Republish all versions of a single partner"
          }
        }
      },
      "exit": {
        "language": {
          "de": {
            "shorttxt": "Beenden",
            "longtxt": "Beenden"
          },
          "en": {
            "shorttxt": "Exit",
            "longtxt": "Exit"
          }
        }
      }
    }
  ]
}