{
  "I": {
    "Row": [
      {
        "BITEMPValidFrom": null,
        "BITEMPValidTo": null,
        "TECHSourceSystem": null,
        "encryptionCode_VIP": null,
        "newBusinessPartnerID": null,
        "TECHExternalPID": null,
        "academicDegree": null,
        "commChannelPref": null,
        "creditRating": null,
        "dateOfBirth": null,
        "dateOfDeath": null,
        "discountCategory": null,
        "DNA": null,
        "driverLicenseID": null,
        "education": null,
        "employmentGrade": null,
        "employmentStatus": null,
        "fingerprint": null,
        "goalAndNeed": null,
        "healthData": null,
        "healthInformation": null,
        "hobby": null,
        "homeTown": null,
        "isBiometric": null,
        "businessPartnerType": null,
        "language": null,
        "maritalStatus": null,
        "membership": null,
        "name": null,
        "companyName": null,
        "nationalIDCard": null,
        "nationality": null,
        "note": null,
        "passport": null,
        "pets": null,
        "placeOfBirth": null,
        "profession": null,
        "religion": null,
        "residencePermit": null,
        "salutation": null,
        "secondName": null,
        "securityClassification": null,
        "sex": null,
        "signature": null,
        "skills": null,
        "stopCode": null,
        "surname": null,
        "thirdName": null,
        "assessment": null,
        "closingDate": null,
        "DUNSNumber": null,
        "FINMANumber": null,
        "foundingDate": null,
        "legalType": null,
        "NOGACode": null,
        "UID": null,
        "socialSecurityNumber": null,
        "BITEMPMDMTimestamp": null,
        "BITEMPSourceTimestamp": null,
        "nameAtBirth": null,
        "noAds": null,
        "alienStatus": null,
        "inEducation": null,
        "socialAssistanceRecipients": null,
        "dutyToContribute": null,
        "residentPermitValidTo": null,
        "VIP": null,
        "function": null,
        "domicileCity": null,
        "domicileCountry": null,
        "domicileHouseNumber": null,
        "domicileRegion": null,
        "domicileStreet": null,
        "domicileZIP": null,
        "OrgUnit": [
          {
            "division": null,
            "OELevel": null,
            "OEName": null,
            "legalUnit": null,
            "OEShortCode": null
          }
        ],
        "TECHMDMPartnerID": null,
        "IdentificationNumber": [
          {
            "IDType": null,
            "IDNumber": null
          }
        ]
      }
    ]
  }
}