{
  "I": {
    "Row": [
      {
        "BITEMPValidFrom": null,
        "BITEMPValidTo": null,
        "BITEMPMDMTimestamp": null,
        "TECHInternalPID": null,
        "TECHExternalPID": null,
        "TECHSourceSystem": null,
        "locationID": null,
        "newLocationID": null,
        "regionName": null,
        "flat": null,
        "floor": null,
        "geoCoordinates": null,
        "addressID": null,
        "addressReference": null,
        "addressRegion": null,
        "city": null,
        "country": null,
        "houseNumber": null,
        "postbox": null,
        "street": null,
        "ZIPCode": null,
        "ZIPCodeExtension": null,
        "BITEMPSourceTimestamp": null,
        "TECHMDMPartnerID": null,
        "regionType": null,
        "recordID": null,
        "IdentificationNumber": [
          {
            "IDType": null,
            "IDNumber": null
          }
        ]
      }
    ]
  }
}