{
  "searchPartnerResult": {
    "type": "String",
    "language": {
      "de": {
        "shorttxt": "Ergebnis",
        "longtxt": "Ergebnis"
      },
      "en": {
        "shorttxt": "Result",
        "longtxt": "Result"
      }
    }
  },
  "dataSaved": {
    "type": "String",
    "language": {
      "de": {
        "shorttxt": "Daten wurden gespeichert",
        "longtxt": "Daten wurden gespeichert"
      },
      "en": {
        "shorttxt": "Data saved",
        "longtxt": "Data saved"
      }
    }
  },
  "displayServiceResult": {
    "type": "String",
    "language": {
      "de": {
        "shorttxt": "Ergebnis",
        "longtxt": "Ergebnis"
      },
      "en": {
        "shorttxt": "Ergebnis",
        "longtxt": "Ergebnis"
      }
    }
  },
  "serviceResult": {
    "type": "String",
    "language": {
      "de": {
        "shorttxt": "Ergebnis",
        "longtxt": "Ergebnis"
      },
      "en": {
        "shorttxt": "Ergebnis",
        "longtxt": "Ergebnis"
      }
    }
  },
  "noData": {
    "type": "String",
    "language": {
      "de": {
        "shorttxt": "Keine Daten vorhanden",
        "longtxt": "Keine Daten vorhanden"
      },
      "en": {
        "shorttxt": "No data available",
        "longtxt": "No data available"
      }
    }
  },
  "selector": {
    "type": "boolean",
    "language": {
      "de": {
        "shorttxt": "Auswahl",
        "longtxt": "Auswahl"
      },
      "en": {
        "shorttxt": "Selector",
        "longtxt": "Selector"
      }
    }
  },
  "textBox": {
    "language": {
      "de": {
        "shorttxt": "Text Box",
        "longtxt": "Text Box"
      },
      "en": {
        "shorttxt": "Text Box",
        "longtxt": "Text Box"
      }
    }
  },
  "entity": {
    "type": "list",
    "language": {
      "de": {
        "shorttxt": "Entität",
        "longtxt": "Entität"
      },
      "en": {
        "shorttxt": "Entity",
        "longtxt": "Entity"
      }
    }
  },
  "buttonTrue": {
    "language": {
      "de": {
        "shorttxt": "OK",
        "longtxt": "OK"
      },
      "en": {
        "shorttxt": "OK",
        "longtxt": "OK"
      }
    }
  },
  "boolean": {
    "type": "boolean",
    "language": {
      "de": {
        "shorttxt": "Auswahl",
        "longtxt": "Auswahl"
      },
      "en": {
        "shorttxt": "Choice",
        "longtxt": "Choice"
      }
    }
  },
  "buttonFalse": {
    "language": {
      "de": {
        "shorttxt": "Abbrechen",
        "longtxt": "Abbrechen"
      },
      "en": {
        "shorttxt": "Cancel",
        "longtxt": "Cancel"
      }
    }
  },
  "actionBusinessPartner": {
    "type": "form",
    "language": {
      "de": {
        "shorttxt": "Menü Geschäftspartner",
        "longtxt": "Menü Geschäftspartner"
      },
      "en": {
        "shorttxt": "Menu Business Partner",
        "longtxt": "Menu Business Partner"
      }
    }
  },
  "bitemporalSelectionCriteria": {
    "type": "text",
    "language": {
      "de": {
        "shorttxt": "Bitemporale Selektionskriterien",
        "longtxt": "Bitemporale Selektionskriterien"
      },
      "en": {
        "shorttxt": "Bitemporal selection criteria",
        "longtxt": "Bitemporal selection criteria"
      }
    }
  },
  "LegalPerson": {
    "type": "structure",
    "language": {
      "de": {
        "shorttxt": "Juristische Person",
        "longtxt": "Juristische Person"
      },
      "en": {
        "shorttxt": "Legal Person",
        "longtxt": "Legal Person"
      }
    }
  },
  "NaturalPerson": {
    "type": "structure",
    "language": {
      "de": {
        "shorttxt": "Natürliche Person",
        "longtxt": "Natürliche Person"
      },
      "en": {
        "shorttxt": "Natural Person",
        "longtxt": "Natural Person"
      }
    }
  },
  "OrgUnit": {
    "type": "table",
    "language": {
      "de": {
        "shorttxt": "Organisationseinheit",
        "longtxt": "Organisationseinheit"
      },
      "en": {
        "shorttxt": "Organisational Unit",
        "longtxt": "Organisational Unit"
      }
    }
  },
  "BusinessPartnerID": {
    "type": "structure",
    "language": {
      "de": {
        "shorttxt": "Geschäftspartner ID",
        "longtxt": "Geschäftspartner ID"
      },
      "en": {
        "shorttxt": "Business Partner ID",
        "longtxt": "Business Partner ID"
      }
    }
  },
  "isBusinessPartner": {
    "type": "structure",
    "language": {
      "de": {
        "shorttxt": "isBusinessPartner",
        "longtxt": "isBusinessPartner"
      },
      "en": {
        "shorttxt": "isBusinessPartner",
        "longtxt": "isBusinessPartner"
      }
    }
  },
  "BusinessPartner": {
    "type": "structure",
    "language": {
      "de": {
        "shorttxt": "Geschäftspartner",
        "longtxt": "Geschäftspartner"
      },
      "en": {
        "shorttxt": "Business Partner",
        "longtxt": "Business Partner"
      }
    }
  },
  "Location": {
    "type": "table",
    "language": {
      "de": {
        "shorttxt": "Ort",
        "longtxt": "Ort"
      },
      "en": {
        "shorttxt": "Location",
        "longtxt": "Location"
      }
    }
  },
  "BusinessPartnerRelationID": {
    "type": "table",
    "language": {
      "de": {
        "shorttxt": "Beziehung",
        "longtxt": "Beziehung"
      },
      "en": {
        "shorttxt": "Relation",
        "longtxt": "Relation"
      }
    }
  },
  "ShippingInstructionID": {
    "type": "table",
    "language": {
      "de": {
        "shorttxt": "Versandanweisung",
        "longtxt": "Versandanweisung"
      },
      "en": {
        "shorttxt": "Shipping Instruction",
        "longtxt": "Shipping Instruction"
      }
    }
  },
  "FinancialMasterDataID": {
    "type": "table",
    "language": {
      "de": {
        "shorttxt": "Finanzstammdaten",
        "longtxt": "Finanzstammdaten"
      },
      "en": {
        "shorttxt": "Financial Master Data",
        "longtxt": "Financial Master Data"
      }
    }
  },
  "RoleID": {
    "type": "table",
    "language": {
      "de": {
        "shorttxt": "Rolle",
        "longtxt": "Rolle"
      },
      "en": {
        "shorttxt": "Role",
        "longtxt": "Role"
      }
    }
  },
  "roleID": {
    "language": {
      "de": {
        "shorttxt": "Rolle",
        "longtxt": "Rolle"
      },
      "en": {
        "shorttxt": "Role",
        "longtxt": "Role"
      }
    }
  },
  "role": {
    "type": "form",
    "language": {
      "de": {
        "shorttxt": "Rolle",
        "longtxt": "Rolle"
      },
      "en": {
        "shorttxt": "Role",
        "longtxt": "Role"
      }
    }
  },
  "businessPartner": {
    "type": "form",
    "language": {
      "de": {
        "shorttxt": "Geschäftspartner",
        "longtxt": "Geschäftspartner"
      },
      "en": {
        "shorttxt": "Business partner",
        "longtxt": "Business partner"
      }
    }
  },
  "fullPartner": {
    "type": "form",
    "language": {
      "de": {
        "shorttxt": "Geschäftspartner",
        "longtxt": "Geschäftspartner"
      },
      "en": {
        "shorttxt": "Business partner",
        "longtxt": "Business partner"
      }
    }
  },
  "readBusinessPartner": {
    "type": "form",
    "language": {
      "de": {
        "shorttxt": "Geschäftspartner lesen",
        "longtxt": "Geschäftspartner lesen"
      },
      "en": {
        "shorttxt": "Read business partner",
        "longtxt": "Read business partner"
      }
    }
  },
  "keyDate": {
    "type": "date",
    "language": {
      "de": {
        "shorttxt": "Stichtag",
        "longtxt": "Stichtag"
      },
      "en": {
        "shorttxt": "Key date",
        "longtxt": "Key date"
      }
    }
  },
  "BITEMPValidFrom": {
    "type": "date",
    "language": {
      "de": {
        "shorttxt": "Gültig ab",
        "longtxt": "Gültig ab"
      },
      "en": {
        "shorttxt": "Valid from",
        "longtxt": "Valid from"
      }
    }
  },
  "BITEMPValidTo": {
    "type": "date",
    "language": {
      "de": {
        "shorttxt": "Gültig bis",
        "longtxt": "Gültig bis"
      },
      "en": {
        "shorttxt": "Valid to",
        "longtxt": "Valid to"
      }
    }
  },
  "BITEMPMDMTimestamp": {
    "type": "timestamp",
    "language": {
      "de": {
        "shorttxt": "MDM Zeitstempel",
        "longtxt": "MDM Zeitstempel im Format yyyy-mm-dd hh:mm:ss.SSS",
        "placeholder": "yyyy-mm-dd hh:mm:ss.SSS"
      },
      "en": {
        "shorttxt": "MDM Timestamp",
        "longtxt": "MDM Timestamp format yyyy-mm-dd hh:mm:ss.SSS",
        "placeholder": "yyyy-mm-dd hh:mm:ss.SSS"
      }
    }
  },
  "BITEMPTimestamp": {
    "type": "timestamp",
    "language": {
      "de": {
        "shorttxt": "Zeitstempel",
        "longtxt": "Zeitstempel im Format yyyy-mm-dd hh:mm:ss.SSS",
        "placeholder": "yyyy-mm-dd hh:mm:ss.SSS"
      },
      "en": {
        "shorttxt": "Timestamp",
        "longtxt": "Timestamp format yyyy-mm-dd hh:mm:ss.SSS",
        "placeholder": "yyyy-mm-dd hh:mm:ss.SSS"
      }
    }
  },
  "BITEMPSourceTimestamp": {
    "type": "timestamp",
    "language": {
      "de": {
        "shorttxt": "Quellsystem Zeitstempel",
        "longtxt": "Quellsystem Zeitstempel im Format yyyy-mm-dd hh:mm:ss.SSS",
        "placeholder": "yyyy-mm-dd hh:mm:ss.SSS"
      },
      "en": {
        "shorttxt": "Source system timestamp",
        "longtxt": "Source system timestamp format yyyy-mm-dd hh:mm:ss.SSS",
        "placeholder": "yyyy-mm-dd hh:mm:ss.SSS"
      }
    }
  },
  "TECHMDMPartnerID": {
    "type": "string",
    "language": {
      "de": {
        "shorttxt": "MDM Partner ID",
        "longtxt": "MDM Partner ID",
        "placeholder": "MDM Partner ID eingeben (UUID)"
      },
      "en": {
        "shorttxt": "MDM Partner ID",
        "longtxt": "MDM Partner ID",
        "placeholder": "Enter MDM Partner ID (UUID)"
      }
    }
  },
  "TECHExternalPID": {
    "type": "string",
    "language": {
      "de": {
        "shorttxt": "Externe PID",
        "longtxt": "Externe PID"
      },
      "en": {
        "shorttxt": "External PID",
        "longtxt": "External PID"
      }
    }
  },
  "TECHInternalPID": {
    "type": "string",
    "language": {
      "de": {
        "shorttxt": "Interne PID",
        "longtxt": "Interne PID"
      },
      "en": {
        "shorttxt": "Internal PID",
        "longtxt": "Internal PID"
      }
    }
  },
  "TECHSourceSystem": {
    "type": "string",
    "language": {
      "de": {
        "shorttxt": "Quellsystem",
        "longtxt": "Quellsystem"
      },
      "en": {
        "shorttxt": "Source system",
        "longtxt": "Source system"
      }
    }
  },
  "TECHSourceTimestamp": {
    "type": "timestamp",
    "language": {
      "de": {
        "shorttxt": "Quellsystemzeitstempel",
        "longtxt": "Quellsystemzeitstempel",
        "placeholder": "yyyy-mm-dd hh:mm:ss.SSS"
      },
      "en": {
        "shorttxt": "Source system timestamp",
        "longtxt": "Source system timestamp",
        "placeholder": "yyyy-mm-dd hh:mm:ss.SSS"
      }
    }
  },
  "companyCode": {
    "type": "string",
    "language": {
      "de": {
        "shorttxt": "companyCode",
        "longtxt": "companyCode"
      },
      "en": {
        "shorttxt": "companyCode",
        "longtxt": "companyCode"
      }
    }
  },
  "customerStatus": {
    "type": "string",
    "language": {
      "de": {
        "shorttxt": "Kundenstatus",
        "longtxt": "Kundenstatus"
      },
      "en": {
        "shorttxt": "Customer status",
        "longtxt": "Customer status"
      }
    }
  },
  "customerNumber": {
    "type": "string",
    "language": {
      "de": {
        "shorttxt": "Kundennummer",
        "longtxt": "Kundennummer"
      },
      "en": {
        "shorttxt": "Customer number",
        "longtxt": "Customer number"
      }
    }
  },
  "customerSince": {
    "type": "string",
    "language": {
      "de": {
        "shorttxt": "Kunde seit",
        "longtxt": "Kunde seit"
      },
      "en": {
        "shorttxt": "Customer since",
        "longtxt": "Customer since"
      }
    }
  },
  "employeeCode": {
    "type": "string",
    "language": {
      "de": {
        "shorttxt": "Mitarbeiternummer",
        "longtxt": "Mitarbeiternummer"
      },
      "en": {
        "shorttxt": "Employee code",
        "longtxt": "Employee code"
      }
    }
  },
  "employmentStatus": {
    "type": "string",
    "language": {
      "de": {
        "shorttxt": "Beschäftigungsstatus",
        "longtxt": "Beschäftigungsstatus"
      },
      "en": {
        "shorttxt": "Employment status",
        "longtxt": "Employment status"
      }
    }
  },
  "entryDate": {
    "type": "date",
    "language": {
      "de": {
        "shorttxt": "Eintrittsdatum",
        "longtxt": "Eintrittsdatum"
      },
      "en": {
        "shorttxt": "Entry date",
        "longtxt": "Entry date"
      }
    }
  },
  "exitDate": {
    "type": "date",
    "language": {
      "de": {
        "shorttxt": "Austrittsdatum",
        "longtxt": "Austrittsdatum"
      },
      "en": {
        "shorttxt": "Exit date",
        "longtxt": "Exit date"
      }
    }
  },
  "generalAgency": {
    "type": "string",
    "language": {
      "de": {
        "shorttxt": "generalAgency",
        "longtxt": "generalAgency"
      },
      "en": {
        "shorttxt": "generalAgency",
        "longtxt": "generalAgency"
      }
    }
  },
  "partnerStatusInformation": {
    "type": "string",
    "language": {
      "de": {
        "shorttxt": "partnerStatusInformation",
        "longtxt": "partnerStatusInformation"
      },
      "en": {
        "shorttxt": "partnerStatusInformation",
        "longtxt": "partnerStatusInformation"
      }
    }
  },
  "personalNumber": {
    "type": "string",
    "language": {
      "de": {
        "shorttxt": "personalNumber",
        "longtxt": "personalNumber"
      },
      "en": {
        "shorttxt": "personalNumber",
        "longtxt": "personalNumber"
      }
    }
  },
  "purpose": {
    "type": "string",
    "language": {
      "de": {
        "shorttxt": "purpose",
        "longtxt": "purpose"
      },
      "en": {
        "shorttxt": "purpose",
        "longtxt": "purpose"
      }
    }
  },
  "roleID": {
    "language": {
      "de": {
        "shorttxt": "roleID",
        "longtxt": "roleID"
      },
      "en": {
        "shorttxt": "roleID",
        "longtxt": "roleID"
      }
    }
  },
  "roleType": {
    "type": "referenceData",
    "language": {
      "de": {
        "shorttxt": "Rollentyp",
        "longtxt": "Rollentyp"
      },
      "en": {
        "shorttxt": "roleType",
        "longtxt": "roleType"
      }
    }
  },
  "roleIDLabel": {
    "type": "string",
    "language": {
      "de": {
        "shorttxt": "roleIDLabel",
        "longtxt": "roleIDLabel"
      },
      "en": {
        "shorttxt": "roleIDLabel",
        "longtxt": "roleIDLabel"
      }
    }
  },
  "roleLabel": {
    "type": "string",
    "language": {
      "de": {
        "shorttxt": "roleLabel",
        "longtxt": "roleLabel"
      },
      "en": {
        "shorttxt": "roleLabel",
        "longtxt": "roleLabel"
      }
    }
  },
  "ChannelID": {
    "type": "table",
    "language": {
      "de": {
        "shorttxt": "Kanal ID",
        "longtxt": "Kanal ID"
      },
      "en": {
        "shorttxt": "Channel ID",
        "longtxt": "Channel ID"
      }
    }
  },
  "shippingInstructionType": {
    "type": "referenceData",
    "language": {
      "de": {
        "shorttxt": "Typ Versandanweisung",
        "longtxt": "Typ Versandanweisung"
      },
      "en": {
        "shorttxt": "Type shipping instruction",
        "longtxt": "Type shipping instruction"
      }
    }
  },
  "channelIDLabel": {
    "type": "string",
    "language": {
      "de": {
        "shorttxt": "Label Channel ID",
        "longtxt": "Label Channel ID"
      },
      "en": {
        "shorttxt": "Label channel ID",
        "longtxt": "Label channel ID"
      }
    }
  },
  "relationType": {
    "type": "referenceData",
    "language": {
      "de": {
        "shorttxt": "Beziehungstyp",
        "longtxt": "Beziehungstyp"
      },
      "en": {
        "shorttxt": "Relation type",
        "longtxt": "Relation type"
      }
    }
  },
  "sourcePartner": {
    "type": "string",
    "language": {
      "de": {
        "shorttxt": "Partner Quelle",
        "longtxt": "Partner Quelle"
      },
      "en": {
        "shorttxt": "Source partner",
        "longtxt": "Source partner"
      }
    }
  },
  "targetPartner": {
    "type": "string",
    "language": {
      "de": {
        "shorttxt": "Partner Ziel",
        "longtxt": "Partner Ziel"
      },
      "en": {
        "shorttxt": "Target partner",
        "longtxt": "Target partner"
      }
    }
  },
  "channelType": {
    "type": "referenceData",
    "language": {
      "de": {
        "shorttxt": "Kanaltyp",
        "longtxt": "Kanaltyp"
      },
      "en": {
        "shorttxt": "Channel type",
        "longtxt": "Channel type"
      }
    }
  },
  "channelNote": {
    "type": "string",
    "language": {
      "de": {
        "shorttxt": "Kanal Notiz",
        "longtxt": "Kanal Notiz"
      },
      "en": {
        "shorttxt": "Channel note",
        "longtxt": "Channel note"
      }
    }
  },
  "preferredLanguage": {
    "type": "string",
    "language": {
      "de": {
        "shorttxt": "Bevorzugte Sprache",
        "longtxt": "Bevorzugte Sprache"
      },
      "en": {
        "shorttxt": "Preferred language",
        "longtxt": "Preferred language"
      }
    }
  },
  "privateBusiness": {
    "type": "string",
    "language": {
      "de": {
        "shorttxt": "Private business",
        "longtxt": "Private business"
      },
      "en": {
        "shorttxt": "Private business",
        "longtxt": "Private business"
      }
    }
  },
  "routing": {
    "type": "string",
    "language": {
      "de": {
        "shorttxt": "Routing",
        "longtxt": "Routing"
      },
      "en": {
        "shorttxt": "Routing",
        "longtxt": "Routing"
      }
    }
  },
  "usage": {
    "type": "referenceData",
    "language": {
      "de": {
        "shorttxt": "Gebrauch",
        "longtxt": "Gebrauch"
      },
      "en": {
        "shorttxt": "Usage",
        "longtxt": "Usage"
      }
    }
  },
  "emailAddress": {
    "type": "string",
    "language": {
      "de": {
        "shorttxt": "E-Mail",
        "longtxt": "E-Mail Adresse"
      },
      "en": {
        "shorttxt": "Email address",
        "longtxt": "Email address"
      }
    }
  },
  "telephoneNumber": {
    "type": "string",
    "language": {
      "de": {
        "shorttxt": "Telefonnummer",
        "longtxt": "Telefonnummer"
      },
      "en": {
        "shorttxt": "Telephone number",
        "longtxt": "Telephone number"
      }
    }
  },
  "skypeAddress": {
    "type": "string",
    "language": {
      "de": {
        "shorttxt": "Skype Adresse",
        "longtxt": "Skype Adresse"
      },
      "en": {
        "shorttxt": "Skype address",
        "longtxt": "Skype address"
      }
    }
  },
  "AddressLocationLabel": {
    "type": "string",
    "language": {
      "de": {
        "shorttxt": "Adress-Location Label",
        "longtxt": "Adress-Location Label"
      },
      "en": {
        "shorttxt": "Adress-location label",
        "longtxt": "Adress-location label"
      }
    }
  },
  "LocationID": {
    "type": "table",
    "language": {
      "de": {
        "shorttxt": "Location ID",
        "longtxt": "Location ID"
      },
      "en": {
        "shorttxt": "Location ID",
        "longtxt": "Location ID"
      }
    }
  },
  "newLocationID": {
    "type": "string",
    "language": {
      "de": {
        "shorttxt": " Neue Location ID",
        "longtxt": "Neue Location ID"
      },
      "en": {
        "shorttxt": "New location ID",
        "longtxt": "New location ID"
      }
    }
  },
  "regionName": {
    "type": "string",
    "language": {
      "de": {
        "shorttxt": "Region",
        "longtxt": "Region"
      },
      "en": {
        "shorttxt": "Region name",
        "longtxt": "Region name"
      }
    }
  },
  "flat": {
    "type": "string",
    "language": {
      "de": {
        "shorttxt": "Gebäude",
        "longtxt": "Gebäude"
      },
      "en": {
        "shorttxt": "Flat",
        "longtxt": "Flat"
      }
    }
  },
  "floor": {
    "type": "string",
    "language": {
      "de": {
        "shorttxt": "Stockwerk",
        "longtxt": "Stockwerk"
      },
      "en": {
        "shorttxt": "Floor",
        "longtxt": "Floor"
      }
    }
  },
  "geoCoordinates": {
    "type": "string",
    "language": {
      "de": {
        "shorttxt": "Geo Koordinaten",
        "longtxt": "Geo Koordinaten"
      },
      "en": {
        "shorttxt": "Geo coordinates",
        "longtxt": "Geo coordinates"
      }
    }
  },
  "addressID": {
    "type": "string",
    "language": {
      "de": {
        "shorttxt": "Adress-ID",
        "longtxt": "Adress-ID"
      },
      "en": {
        "shorttxt": "Address ID",
        "longtxt": "Address ID"
      }
    }
  },
  "addressReference": {
    "type": "string",
    "language": {
      "de": {
        "shorttxt": "Adress-Referenz",
        "longtxt": "Adress-Referenz"
      },
      "en": {
        "shorttxt": "Address reference",
        "longtxt": "Address reference"
      }
    }
  },
  "addressRegion": {
    "type": "string",
    "language": {
      "de": {
        "shorttxt": "Adress-Region",
        "longtxt": "Adress-Region"
      },
      "en": {
        "shorttxt": "Address region",
        "longtxt": "Address region"
      }
    }
  },
  "city": {
    "type": "string",
    "language": {
      "de": {
        "shorttxt": "Stadt",
        "longtxt": "Stadt"
      },
      "en": {
        "shorttxt": "City",
        "longtxt": "City"
      }
    }
  },
  "country": {
    "type": "string",
    "language": {
      "de": {
        "shorttxt": "Land",
        "longtxt": "LAnd"
      },
      "en": {
        "shorttxt": "Country",
        "longtxt": "Country"
      }
    }
  },
  "houseNumber": {
    "type": "string",
    "language": {
      "de": {
        "shorttxt": "Hausnummer",
        "longtxt": "Hausnummer"
      },
      "en": {
        "shorttxt": "House number",
        "longtxt": "House number"
      }
    }
  },
  "postbox": {
    "type": "string",
    "language": {
      "de": {
        "shorttxt": "Postfach",
        "longtxt": "Postfach"
      },
      "en": {
        "shorttxt": "Postbox",
        "longtxt": "Postbox"
      }
    }
  },
  "street": {
    "type": "string",
    "language": {
      "de": {
        "shorttxt": "Strasse",
        "longtxt": "Strasse"
      },
      "en": {
        "shorttxt": "Street",
        "longtxt": "Street"
      }
    }
  },
  "ZIPCode": {
    "type": "string",
    "language": {
      "de": {
        "shorttxt": "Postleitzahl",
        "longtxt": "Postleitzahl"
      },
      "en": {
        "shorttxt": "ZIP code",
        "longtxt": "ZIP code"
      }
    }
  },
  "ZIPCodeExtension": {
    "type": "string",
    "language": {
      "de": {
        "shorttxt": "PLZ Ergänzung",
        "longtxt": "Postleitzahl Ergänzung"
      },
      "en": {
        "shorttxt": "ZIP code extension",
        "longtxt": "ZIP code extension"
      }
    }
  },
  "paymentType": {
    "type": "string",
    "language": {
      "de": {
        "shorttxt": "Zahlungsart",
        "longtxt": "Zahlungsart"
      },
      "en": {
        "shorttxt": "Payment type",
        "longtxt": "Payment type"
      }
    }
  },
  "accountNumber": {
    "type": "string",
    "language": {
      "de": {
        "shorttxt": "Kontonummer",
        "longtxt": "Kontonummer"
      },
      "en": {
        "shorttxt": "Account number",
        "longtxt": "Account number"
      }
    }
  },
  "bankName": {
    "type": "string",
    "language": {
      "de": {
        "shorttxt": "Bankinstitut",
        "longtxt": "Bankinstitut"
      },
      "en": {
        "shorttxt": "Bank",
        "longtxt": "Bank"
      }
    }
  },
  "IBAN": {
    "type": "string",
    "language": {
      "de": {
        "shorttxt": "IBAN",
        "longtxt": "IBAN"
      },
      "en": {
        "shorttxt": "IBAN",
        "longtxt": "IBAN"
      }
    }
  },
  "SWIFTBIC": {
    "type": "string",
    "language": {
      "de": {
        "shorttxt": "SWIFTBIC",
        "longtxt": "SWIFTBIC"
      },
      "en": {
        "shorttxt": "SWIFTBIC",
        "longtxt": "SWIFTBIC"
      }
    }
  },
  "financialMasterDataID": {
    "type": "string",
    "language": {
      "de": {
        "shorttxt": "Finanzstammdaten ID",
        "longtxt": "Finanzstammdaten ID"
      },
      "en": {
        "shorttxt": "Financial master data ID",
        "longtxt": "Financial master data ID"
      }
    }
  },
  "encryptionCode_VIP": {
    "type": "string",
    "language": {
      "de": {
        "shorttxt": "Encryption Code VIP",
        "longtxt": "Encryption Code VIP"
      },
      "en": {
        "shorttxt": "Encryption code VIP",
        "longtxt": "Encryption code VIP"
      }
    }
  },
  "newBusinessPartnerID": {
    "type": "string",
    "language": {
      "de": {
        "shorttxt": "Neue Geschäftspartner ID",
        "longtxt": "Neue Geschäftspartner ID"
      },
      "en": {
        "shorttxt": "New business partner ID",
        "longtxt": "New business partner ID"
      }
    }
  },
  "academicDegree": {
    "type": "referenceData",
    "language": {
      "de": {
        "shorttxt": "Titel",
        "longtxt": "Akademischer Grad"
      },
      "en": {
        "shorttxt": "Title",
        "longtxt": "Academic degree"
      }
    }
  },
  "commChannelPref": {
    "type": "string",
    "language": {
      "de": {
        "shorttxt": "Präf Komm.Kanal",
        "longtxt": "Präferierter Kommunikationskanal"
      },
      "en": {
        "shorttxt": "Perf. comm.channel",
        "longtxt": "Preferred communication channel"
      }
    }
  },
  "creditRating": {
    "type": "string",
    "language": {
      "de": {
        "shorttxt": "Kredit Rating",
        "longtxt": "Kredit Rating"
      },
      "en": {
        "shorttxt": "credit Rating",
        "longtxt": "credit Rating"
      }
    }
  },
  "dateOfBirth": {
    "type": "date",
    "language": {
      "de": {
        "shorttxt": "Geburtsdatum",
        "longtxt": "Geburtsdatum"
      },
      "en": {
        "shorttxt": "Date of birth",
        "longtxt": "Date of birth"
      }
    }
  },
  "dateOfDeath": {
    "type": "date",
    "language": {
      "de": {
        "shorttxt": "Sterbedatum",
        "longtxt": "Sterbedatum"
      },
      "en": {
        "shorttxt": "Date of death",
        "longtxt": "Date of death"
      }
    }
  },
  "discountCategory": {
    "type": "referenceData",
    "language": {
      "de": {
        "shorttxt": "Rabatt Kategorie",
        "longtxt": "Rabatt Kategorie"
      },
      "en": {
        "shorttxt": "discountCategory",
        "longtxt": "discountCategory"
      }
    }
  },
  "DNA": {
    "type": "string",
    "language": {
      "de": {
        "shorttxt": "DNA",
        "longtxt": "DNA"
      },
      "en": {
        "shorttxt": "DNA",
        "longtxt": "DNA"
      }
    }
  },
  "driverLicenseID": {
    "type": "string",
    "language": {
      "de": {
        "shorttxt": "Führerscheinnummer",
        "longtxt": "Führerscheinnummer"
      },
      "en": {
        "shorttxt": "Driver license ID",
        "longtxt": "Driver license ID"
      }
    }
  },
  "education": {
    "type": "string",
    "language": {
      "de": {
        "shorttxt": "Ausbildung",
        "longtxt": "Ausbildung"
      },
      "en": {
        "shorttxt": "Education",
        "longtxt": "Education"
      }
    }
  },
  "employmentGrade": {
    "type": "string",
    "language": {
      "de": {
        "shorttxt": "employmentGrade",
        "longtxt": "employmentGrade"
      },
      "en": {
        "shorttxt": "employmentGrade",
        "longtxt": "employmentGrade"
      }
    }
  },
  "fingerprint": {
    "type": "string",
    "language": {
      "de": {
        "shorttxt": "Fingerabdruck",
        "longtxt": "Fingerabdruck"
      },
      "en": {
        "shorttxt": "Fingerprint",
        "longtxt": "Fingerprint"
      }
    }
  },
  "goalAndNeed": {
    "type": "string",
    "language": {
      "de": {
        "shorttxt": "goalAndNeed",
        "longtxt": "goalAndNeed"
      },
      "en": {
        "shorttxt": "goalAndNeed",
        "longtxt": "goalAndNeed"
      }
    }
  },
  "healthData": {
    "type": "string",
    "language": {
      "de": {
        "shorttxt": "healthData",
        "longtxt": "healthData"
      },
      "en": {
        "shorttxt": "healthData",
        "longtxt": "healthData"
      }
    }
  },
  "healthInformation": {
    "type": "string",
    "language": {
      "de": {
        "shorttxt": "healthInformation",
        "longtxt": "healthInformation"
      },
      "en": {
        "shorttxt": "healthInformation",
        "longtxt": "healthInformation"
      }
    }
  },
  "hobby": {
    "type": "string",
    "language": {
      "de": {
        "shorttxt": "Hobby",
        "longtxt": "Hobby"
      },
      "en": {
        "shorttxt": "Hobby",
        "longtxt": "Hobby"
      }
    }
  },
  "homeTown": {
    "type": "string",
    "language": {
      "de": {
        "shorttxt": "Wohnort",
        "longtxt": "Wohnort"
      },
      "en": {
        "shorttxt": "Residence",
        "longtxt": "Residence"
      }
    }
  },
  "isBiometric": {
    "type": "string",
    "language": {
      "de": {
        "shorttxt": "isBiometric",
        "longtxt": "isBiometric"
      },
      "en": {
        "shorttxt": "isBiometric",
        "longtxt": "isBiometric"
      }
    }
  },
  "businessPartnerType": {
    "type": "referenceData",
    "language": {
      "de": {
        "shorttxt": "Geschäftspartnertyp",
        "longtxt": "Typ des Geschäftspartners"
      },
      "en": {
        "shorttxt": "Business partner type",
        "longtxt": "Business partner type"
      }
    }
  },
  "language": {
    "type": "referenceData",
    "language": {
      "de": {
        "shorttxt": "Sprache",
        "longtxt": "Sprache"
      },
      "en": {
        "shorttxt": "Language",
        "longtxt": "Language"
      }
    }
  },
  "maritalStatus": {
    "type": "referenceData",
    "language": {
      "de": {
        "shorttxt": "Familienstand",
        "longtxt": "Familienstand"
      },
      "en": {
        "shorttxt": "Marital status",
        "longtxt": "Marital status"
      }
    }
  },
  "membership": {
    "type": "string",
    "language": {
      "de": {
        "shorttxt": "membership",
        "longtxt": "membership"
      },
      "en": {
        "shorttxt": "Membership",
        "longtxt": "Membership"
      }
    }
  },
  "name": {
    "type": "string",
    "language": {
      "de": {
        "shorttxt": "Vorname",
        "longtxt": "Vorname"
      },
      "en": {
        "shorttxt": "First name",
        "longtxt": "First name"
      }
    }
  },
  "companyName": {
    "type": "string",
    "language": {
      "de": {
        "shorttxt": "Firma",
        "longtxt": "Firma"
      },
      "en": {
        "shorttxt": "Company",
        "longtxt": "Company"
      }
    }
  },
  "nationalIDCard": {
    "type": "string",
    "language": {
      "de": {
        "shorttxt": "Personalausweis",
        "longtxt": "Personalausweis"
      },
      "en": {
        "shorttxt": "National ID card",
        "longtxt": "National ID card"
      }
    }
  },
  "nationality": {
    "type": "string",
    "language": {
      "de": {
        "shorttxt": "Nationalität",
        "longtxt": "Nationalität"
      },
      "en": {
        "shorttxt": "Nationality",
        "longtxt": "Nationality"
      }
    }
  },
  "note": {
    "type": "string",
    "language": {
      "de": {
        "shorttxt": "Notiz",
        "longtxt": "Notiz"
      },
      "en": {
        "shorttxt": "Note",
        "longtxt": "Note"
      }
    }
  },
  "passport": {
    "type": "string",
    "language": {
      "de": {
        "shorttxt": "Reisepass",
        "longtxt": "Reisepass"
      },
      "en": {
        "shorttxt": "Passport",
        "longtxt": "Passport"
      }
    }
  },
  "pets": {
    "type": "string",
    "language": {
      "de": {
        "shorttxt": "Haustiere",
        "longtxt": "Haustiere"
      },
      "en": {
        "shorttxt": "Pets",
        "longtxt": "Pets"
      }
    }
  },
  "placeOfBirth": {
    "type": "string",
    "language": {
      "de": {
        "shorttxt": "Geburtsort",
        "longtxt": "Geburtsort"
      },
      "en": {
        "shorttxt": "Place of birth",
        "longtxt": "Place of birth"
      }
    }
  },
  "profession": {
    "type": "string",
    "language": {
      "de": {
        "shorttxt": "Beruf",
        "longtxt": "Beruf"
      },
      "en": {
        "shorttxt": "Profession",
        "longtxt": "Profession"
      }
    }
  },
  "religion": {
    "type": "string",
    "language": {
      "de": {
        "shorttxt": "Religion",
        "longtxt": "Religion"
      },
      "en": {
        "shorttxt": "Religion",
        "longtxt": "Religion"
      }
    }
  },
  "residencePermit": {
    "type": "string",
    "language": {
      "de": {
        "shorttxt": "Aufenthaltsgenehmigung",
        "longtxt": "Aufenthaltsgenehmigung"
      },
      "en": {
        "shorttxt": "Residence permit",
        "longtxt": "Residence permit"
      }
    }
  },
  "salutation": {
    "type": "referenceData",
    "language": {
      "de": {
        "shorttxt": "Anrede",
        "longtxt": "Anrede"
      },
      "en": {
        "shorttxt": "Salutation",
        "longtxt": "Salutation"
      }
    }
  },
  "secondName": {
    "type": "string",
    "language": {
      "de": {
        "shorttxt": "Zweiter Name",
        "longtxt": "Zweiter Name"
      },
      "en": {
        "shorttxt": "Second name",
        "longtxt": "Second name"
      }
    }
  },
  "securityClassification": {
    "type": "string",
    "language": {
      "de": {
        "shorttxt": "Sicherheitseinstufung",
        "longtxt": "Sicherheitseinstufung"
      },
      "en": {
        "shorttxt": "Security classification",
        "longtxt": "Security classification"
      }
    }
  },
  "sex": {
    "type": "referenceData",
    "language": {
      "de": {
        "shorttxt": "Geschlecht",
        "longtxt": "Geschlecht"
      },
      "en": {
        "shorttxt": "Sex",
        "longtxt": "Sex"
      }
    }
  },
  "signature": {
    "type": "string",
    "language": {
      "de": {
        "shorttxt": "Signatur",
        "longtxt": "Signatur"
      },
      "en": {
        "shorttxt": "Signature",
        "longtxt": "Signature"
      }
    }
  },
  "skills": {
    "type": "string",
    "language": {
      "de": {
        "shorttxt": "Skills",
        "longtxt": "Skills"
      },
      "en": {
        "shorttxt": "Skills",
        "longtxt": "Skills"
      }
    }
  },
  "stopCode": {
    "type": "string",
    "language": {
      "de": {
        "shorttxt": "Stop Code",
        "longtxt": "Stop Code"
      },
      "en": {
        "shorttxt": "Stop code",
        "longtxt": "Stop code"
      }
    }
  },
  "surname": {
    "type": "string",
    "language": {
      "de": {
        "shorttxt": "Familiennname",
        "longtxt": "Familiennname"
      },
      "en": {
        "shorttxt": "Surname",
        "longtxt": "Surname"
      }
    }
  },
  "thirdName": {
    "type": "string",
    "language": {
      "de": {
        "shorttxt": "Dritter Name",
        "longtxt": "Dritter Name"
      },
      "en": {
        "shorttxt": "Third name",
        "longtxt": "Third name"
      }
    }
  },
  "assessment": {
    "type": "string",
    "language": {
      "de": {
        "shorttxt": "Begutachtung",
        "longtxt": "Begutachtung"
      },
      "en": {
        "shorttxt": "Assessment",
        "longtxt": "Assessment"
      }
    }
  },
  "closingDate": {
    "type": "date",
    "language": {
      "de": {
        "shorttxt": "Abschlussdatum",
        "longtxt": "Abschlussdatum"
      },
      "en": {
        "shorttxt": "Closing date",
        "longtxt": "Closing date"
      }
    }
  },
  "DUNSNumber": {
    "type": "string",
    "language": {
      "de": {
        "shorttxt": "DUNS Nummer",
        "longtxt": "DUNS Nummer"
      },
      "en": {
        "shorttxt": "DUNS Number",
        "longtxt": "DUNS Number"
      }
    }
  },
  "FINMANumber": {
    "type": "string",
    "language": {
      "de": {
        "shorttxt": "FINMA Nummer",
        "longtxt": "FINMA Nummer"
      },
      "en": {
        "shorttxt": "FINMA Number",
        "longtxt": "FINMA Number"
      }
    }
  },
  "foundingDate": {
    "type": "date",
    "language": {
      "de": {
        "shorttxt": "Gründungsdatum",
        "longtxt": "Gründungsdatum"
      },
      "en": {
        "shorttxt": "Founding date",
        "longtxt": "Founding date"
      }
    }
  },
  "legalType": {
    "type": "referenceData",
    "language": {
      "de": {
        "shorttxt": "Rechtsform",
        "longtxt": "Rechtsform"
      },
      "en": {
        "shorttxt": "legalType",
        "longtxt": "legalType"
      }
    }
  },
  "NOGACode": {
    "type": "string",
    "language": {
      "de": {
        "shorttxt": "NOGA Code",
        "longtxt": "NOGA Code"
      },
      "en": {
        "shorttxt": "NOGA code",
        "longtxt": "NOGA code"
      }
    }
  },
  "UID": {
    "type": "string",
    "language": {
      "de": {
        "shorttxt": "UID",
        "longtxt": "UID"
      },
      "en": {
        "shorttxt": "UID",
        "longtxt": "UID"
      }
    }
  },
  "socialSecurityNumber": {
    "type": "string",
    "language": {
      "de": {
        "shorttxt": "Sozialversicherungsnummer",
        "longtxt": "Sozialversicherungsnummer"
      },
      "en": {
        "shorttxt": "Social security number",
        "longtxt": "Social security number"
      }
    }
  },
  "nameAtBirth": {
    "type": "string",
    "language": {
      "de": {
        "shorttxt": "Geburtsname",
        "longtxt": "Geburtsname"
      },
      "en": {
        "shorttxt": "Name at birth",
        "longtxt": "Name at birth"
      }
    }
  },
  "noAds": {
    "type": "string",
    "language": {
      "de": {
        "shorttxt": "noAds",
        "longtxt": "noAds"
      },
      "en": {
        "shorttxt": "noAds",
        "longtxt": "noAds"
      }
    }
  },
  "alienStatus": {
    "type": "string",
    "language": {
      "de": {
        "shorttxt": "Aufenthaltsstatus",
        "longtxt": "Aufenthaltsstatus"
      },
      "en": {
        "shorttxt": "Alien status",
        "longtxt": "Alien status"
      }
    }
  },
  "inEducation": {
    "type": "string",
    "language": {
      "de": {
        "shorttxt": "In Ausbildung",
        "longtxt": "In Ausbildung"
      },
      "en": {
        "shorttxt": "In education",
        "longtxt": "In education\""
      }
    }
  },
  "socialAssistanceRecipients": {
    "type": "string",
    "language": {
      "de": {
        "shorttxt": "Sozialhilfeempfänger",
        "longtxt": "Sozialhilfeempfänger"
      },
      "en": {
        "shorttxt": "Social assistance recipients",
        "longtxt": "Social assistance recipients"
      }
    }
  },
  "dutyToContribute": {
    "type": "string",
    "language": {
      "de": {
        "shorttxt": "Beitragspflicht",
        "longtxt": "Beitragspflicht"
      },
      "en": {
        "shorttxt": "Duty to contribute",
        "longtxt": "Duty to contribute"
      }
    }
  },
  "residentPermitValidTo": {
    "type": "date",
    "language": {
      "de": {
        "shorttxt": "Aufenthaltsgenehmigung gültig bis",
        "longtxt": "Aufenthaltsgenehmigung gültig bis"
      },
      "en": {
        "shorttxt": "Resident permit valid to",
        "longtxt": "Resident permit valid to"
      }
    }
  },
  "IDType": {
    "type": "referenceData",
    "language": {
      "de": {
        "shorttxt": "ID-Typ",
        "longtxt": "Identifikationsnummerntyp"
      },
      "en": {
        "shorttxt": "ID-Type",
        "longtxt": "Identificationnumber type"
      }
    }
  },
  "deleteFlag": {
    "type": "boolean",
    "language": {
      "de": {
        "shorttxt": "Löschen",
        "longtxt": "Löschen"
      },
      "en": {
        "shorttxt": "Delete",
        "longtxt": "Delete"
      }
    }
  },
  "IDNumber": {
    "type": "table",
    "language": {
      "de": {
        "shorttxt": "ID-Nr.",
        "longtxt": "Identifikationsnummer"
      },
      "en": {
        "shorttxt": "ID-Nr.",
        "longtxt": "Identificationnumber"
      }
    }
  },
  "IdentificationNumber": {
    "type": "table",
    "language": {
      "de": {
        "shorttxt": "Identifikationsnummer",
        "longtxt": "Identifikationsnummer"
      },
      "en": {
        "shorttxt": "Identificationnumber",
        "longtxt": "Identificationnumber"
      }
    }
  },
  "numbers": {
    "type": "text",
    "language": {
      "de": {
        "shorttxt": "Ausweisnummern",
        "longtxt": "Ausweisnummern"
      },
      "en": {
        "shorttxt": "ID-Numbers",
        "longtxt": "Identificationnumbers"
      }
    }
  },
  "diverse": {
    "type": "text",
    "language": {
      "de": {
        "shorttxt": "Sonstiges",
        "longtxt": "Sonstiges"
      },
      "en": {
        "shorttxt": "Diverse",
        "longtxt": "Diverse"
      }
    }
  },
  "professionData": {
    "type": "text",
    "language": {
      "de": {
        "shorttxt": "Berufliche Angaben",
        "longtxt": "Berufliche Angaben"
      },
      "en": {
        "shorttxt": "Profession data",
        "longtxt": "Profession data"
      }
    }
  },
  "VIP": {
    "type": "string",
    "language": {
      "de": {
        "shorttxt": "VIP",
        "longtxt": "VIP"
      },
      "en": {
        "shorttxt": "VIP",
        "longtxt": "VIP"
      }
    }
  },
  "function": {
    "type": "string",
    "language": {
      "de": {
        "shorttxt": "function",
        "longtxt": "function"
      },
      "en": {
        "shorttxt": "function",
        "longtxt": "function"
      }
    }
  },
  "division": {
    "type": "string",
    "language": {
      "de": {
        "shorttxt": "Abteilung",
        "longtxt": "Abteilung"
      },
      "en": {
        "shorttxt": "Division",
        "longtxt": "Division"
      }
    }
  },
  "OELevel": {
    "type": "string",
    "language": {
      "de": {
        "shorttxt": "OELevel",
        "longtxt": "OELevel"
      },
      "en": {
        "shorttxt": "OELevel",
        "longtxt": "OELevel"
      }
    }
  },
  "OEName": {
    "type": "string",
    "language": {
      "de": {
        "shorttxt": "OEName",
        "longtxt": "OEName"
      },
      "en": {
        "shorttxt": "OEName",
        "longtxt": "OEName"
      }
    }
  },
  "motherOE": {
    "type": "string",
    "language": {
      "de": {
        "shorttxt": "motherOE",
        "longtxt": "motherOE"
      },
      "en": {
        "shorttxt": "motherOE",
        "longtxt": "motherOE"
      }
    }
  },
  "legalUnit": {
    "type": "string",
    "language": {
      "de": {
        "shorttxt": "legalUnit",
        "longtxt": "legalUnit"
      },
      "en": {
        "shorttxt": "legalUnit",
        "longtxt": "legalUnit"
      }
    }
  },
  "OEShortCode": {
    "type": "string",
    "language": {
      "de": {
        "shorttxt": "OEShortCode",
        "longtxt": "OEShortCode"
      },
      "en": {
        "shorttxt": "OEShortCode",
        "longtxt": "OEShortCode"
      }
    }
  }
}