{
  "action": "boolean",
  "form": "deleteConfirmation",
  "nodes": [
    {
      "deleteConfirmation": {
        "displayNodeHeader": true,
        "dataPath": null,
        "fields": [
          {
            "TECHMDMPartnerID": {
              "width": "12",
              "readonly": true
            }
          }
        ]
      }
    }
  ]
}