{
  "form": "locationList",
  "action": "string",
  "nodes": [
    {
      "hasLocationID": {
        "nodeType": "tableNode",
        "tableKey": "hasLocationID",
        "readonly": false,
        "width": 12,
        "nodes": [
          {
            "LocationID": {
              "dataPath": [
                "LocationID"
              ],
              "fields": [
                {
                  "selector": {
                    "width": "1",
                    "readonly": false
                  },
                  "locationID": {
                  "hidden": true
                },
                  "newLocationID": {
                    "hidden": true
                  }
                }
              ]
            },
            "AddressLocation": {
              "dataPath": [
                "LocationID",
                "hasAddressLocation",
                "AddressLocation"
              ],
              "fields": [
                {
                  "addressID": {
                    "hidden": true
                  },
                  "addressReference": {
                    "hidden": true
                  },
                  "addressRegion": {
                    "hidden": true
                  },
                  "street": {
                    "width": "2"
                  },
                  "houseNumber": {
                    "width": "1"
                  },
                  "postbox": {
                    "width": "1"
                  },
                  "ZIPCode": {
                    "width": "1"
                  },
                  "ZIPCodeExtension": {
                    "hidden": true
                  },
                  "city": {
                    "width": "2"
                  },
                  "country": {
                    "width": "1"
                  }
                }
              ]
            },
            "Region": {
              "dataPath": [
                "LocationID",
                "hasRegion",
                "Region"
              ],
              "fields": [
                {
                  "regionName": {
                    "hidden": true
                  }
                }
              ]
            },
            "Site": {
              "dataPath": [
                "LocationID",
                "hasSite",
                "Site"
              ],
              "fields": [
                {
                  "flat": {
                    "hidden": true
                  },
                  "floor": {
                    "hidden": true
                  },
                  "geoCoordinates": {
                    "hidden": true
                  },
                  "deleteFlag": {
                  }
                }
              ]
            }
          }
        ]
      }
    }
  ]
}