{
  "action": [
    {
      "showPartner": {
        "language": {
          "de": {
            "shorttxt": "Anzeigen",
            "longtxt": "Business Partner anzeigen"
          },
          "en": {
            "shorttxt": "Show",
            "longtxt": "Show business partner"
          }
        }
      },
      "updatePartner": {
        "language": {
          "de": {
            "shorttxt": "Ändern",
            "longtxt": "Business Partner ändern"
          },
          "en": {
            "shorttxt": "Change",
            "longtxt": "Change business partner"
          }
        }
      },
      "createPartner": {
        "language": {
          "de": {
            "shorttxt": "Anlegen",
            "longtxt": "Business Partner anlegen"
          },
          "en": {
            "shorttxt": "Create",
            "longtxt": "Create business partner"
          }
        }
      },
      "deletePartner": {
        "language": {
          "de": {
            "shorttxt": "Löschen",
            "longtxt": "Business Partner löschen"
          },
          "en": {
            "shorttxt": "Delete",
            "longtxt": "Delete business partner"
          }
        }
      },
      "exit": {
        "language": {
          "de": {
            "shorttxt": "Beenden",
            "longtxt": "Beenden"
          },
          "en": {
            "shorttxt": "Exit",
            "longtxt": "Exit"
          }
        }
      }
    }
  ]
}