{
  "action": [
    {
      "ok": {
        "type": "String",
        "language": {
          "de": {
            "shorttxt": "OK",
            "longtxt": "OK"
          },
          "en": {
            "shorttxt": "OK",
            "longtxt": "OK"
          }
        }
      }
    }
  ]
}