{
  "action": [
    {
      "role": {
        "language": {
          "de": {
            "shorttxt": "Rollendetails",
            "longtxt": "Rollendetails"
          },
          "en": {
            "shorttxt": "Roledetails",
            "longtxt": "Roledetails"
          }
        }
      },
      "back": {
        "language": {
          "de": {
            "shorttxt": "Zurück",
            "longtxt": "Zurück"
          },
          "en": {
            "shorttxt": "Back",
            "longtxt": "Back"
          }
        }
      }
    }
  ]
}